[
    {
       "ParameterKey": "ParentNetworkStack",
       "ParameterValue": "hopes-beiwe-network"  
    },
    {
        "ParameterKey": "EnvironmentName",
        "ParameterValue": "hopes-prod"  
     },
     {
         "ParameterKey": "CertArn",
         "ParameterValue": "arn:aws:acm:ap-southeast-1:309179128206:certificate/747872cc-b517-4ab3-bcc5-41cd931c11dc"  
      },
     {
         "ParameterKey": "UpstreamUrl",
         "ParameterValue": "https://mxeicoqioghzxhrkdenwpmba-client.study.mohtgroup.com"  
      },
      {
          "ParameterKey": "SysadminEmail",
          "ParameterValue": "moht.tech.aws@moht.com.sg"  
      },
      {
          "ParameterKey": "KeyName",
          "ParameterValue": "hopes-prod"  
      },
      {
          "ParameterKey": "PublicDnsEndpoint",
          "ParameterValue": "mxeicoqioghzxhrkdenwpmba.study.mohtgroup.com"  
      }
]