[
    {
      "ParameterKey": "ParentDatabaseStack",
      "ParameterValue": "hopes-database"
    },
    {
        "ParameterKey": "ParentVPNStack",
        "ParameterValue": "hopes-beiwe-vpn"
      }
  ]