[
   {
      "ParameterKey": "EnvironmentName",
      "ParameterValue": "moht-prod"  
   },

    {
       "ParameterKey": "ParentNetworkStack",
       "ParameterValue": "moht-prod-network"  
    },
    {
        "ParameterKey": "DBInstanceClass",
        "ParameterValue": "db.t2.medium"  
     },
     {
        "ParameterKey": "DBPort",
        "ParameterValue": "5432"  
     },
     {
        "ParameterKey": "DBStorage",
        "ParameterValue": "50"  
     },
     {
        "ParameterKey": "MasterDBPassword",
        "ParameterValue": "ebbJJ2LbhL3VAEReBwymvEH4VfNGejTVue0JmAKqFagv0paGxcMTceekYUkd9WzmznN6wUZXlYMjxhpsBIR3bm9flwUJuEG0krvcSuKDtJE542GhtTQBpYIycEX9FeUK"  
     },
     {
        "ParameterKey": "MultiAZ",
        "ParameterValue": "false"  
     }
]