NVZpIKp1YPTsadqOEPqJTpQc208uHPjgwTQ0zdYKJsOFI5sU8aiyOmAzNM-AKzRPTpZLhUNaWYkU1_3TqN2m4cZ7H2QAEWVkxhgXsAZwgO6xbHTZuHM_RnnFyYbPcNR0PRMlS9gMAeaTnCOiHqo5qAJk31rmpFdF_cfKTd0D2KLC6jVWoFQ1Ui8xxwaLl06NY9VVR-iujc_iG8hFcqRXNklFK1RTiEZITdkOXDegc2ASj6JEJ3KEmIeDMfr5VwVHyevJ5SRh-sC9ssAM_-H-7eRdYeYgipXtiYZc5_-Q54YQM-ucH2lvMfXIvdAo_pi_2Y-osnMPIHHmqvyAl9RIKg==
aAUPSsWGa2Sgt3PwBpf-yA==:HxJO0v8_kOXqWmvkyQ9dxMWBJSvLDMXjJvxTCgKLUq7MK5hfiHXAN6ZLcc7YsVLe0xIgqROnyXab1FR_n_HOCw==
7_6165frw1Xg_dNJTQIsww==:NbHhiJCwBEk20iM4oNV_lQ==
EMZvNg74V4kEkFnRbo7f8w==:7lA_sh9pOgAmTWXB010ZpjypAa4Uah6ZDw-c_7EhYBLA_Ei6OPgLnnV47qaw1zHm8ERDOBYC29LDVv7eogUUaA==
mC7ANDrnbeWrJM7AZ4VeTw==:a1FA-pAPwX__apQbwnCBMnckquIeWrHiqSISNdpOCDw-xYsq5J272Uqlam7o5okr4qX8dR-5mEZQt2_yF5Fqr6Z2I2Et7e_gjoZMhkjKmU0=
Uy7Q54k76sOc_zNUr_mZ2g==:1UMNBEFMbdm_wfyR9XnRKxx3lJOv6R4gKfx0cND4dU-XmASfhIT-lkmsjhzf60Fl9ya1vhvpx3Vxft_zdhZD7ouFt_FI3ZPUVQ-MEecQeoSjFbEy_qbRRCYvx5R4xLWjRb0VBgrDD5igRN8WRWRL_NInhvqzEdxeO2oeOZ3cdt7obc8CfE2hzLrPH8Otp9Lk-Q_noXCj-7NR9m0PjfjulIfC6H18x67lvwa_zOAIf2rm0cEhVXoLSc5iETgHnsjx1fbW1LMLApbAiY36VT2L1A==
rmEgT683agnQ5i2bZiZldg==:nnEoepfhHdhD0yr59UQgmJdj0jJwSjwgLsL8nfYpDz-y79D4J619KGmb-SCph3lFDEj2ecZytDruCkuOirimXlUVx3y5rUrWU-9zMuCXAsWAXIT0R8arCCTiORBuV8v8nSScQrIfFQDhN5Qlyr5F8eovLZssq8AdgnKkK6qUf6g=
W-goI1ThUblZSjyvt6RsQw==:MwlvTxaUYO-j-KRNQjbnukEpQEx1TNfGnsVwnsdYqq556BDHJqDpEFVvObRLqBs5NneBBHKnL3uAFrHzTJ4r8h5T0hgvupiTHsjldnzOIXXTYv_2WULgAdxAUYQBTgqhxIiNYStHzi47kIB4ru3JKRfRdyPuJnuMY-jWKYN46lWeQQAcAGXcTX7-aKJ57CAysCJ8KdDDeBWs7wHT12nN2vGpOr9vSiYUeekpZ4km1PSljWjjdMhDbDz5035qVDm14_ezriDQeYjauZ83gJKOhqgq5EKVMWvunBtJScr5qK1wOJbeF_fbhLOW7ANG7IBZ
NmIiC7oOy5h4Bun6ZegU_g==:_6o1tDsfUEK-fzwyZH6yFPyF-awLT_wpJiVSRxPxWMsI2Fgt-ZQYHWrSX71NffXozaF6NNMGRF5eoZP-lOu8gSL5F-vELeW6iZ5iLDre14M=
jyCY69k04tWgPRYEZAbSzg==:3mp0suR0WaauDl5XfABEadDg8BDCnHt066miz-7zpElHp7nxZKb5gRp0BGf0ASH09046k7uD_yAqMNIFkgfl9j-enRlvd0nRzeBy8Sa53Mh1OnlxthpEplHPtjHS--DB-TDU3zk6W1OidtsaUQP3NuduGNmvQ1o7-O8SYAFveaaoPLS9ybO80QvIaCSaDb1Y
j8rMNSaOJY3JkmFUvEkfhg==:QD0q1FgX2Ff-uspYBm71tlzS0g4c61GP90O0uURTPuMn_mIZu3rmDak0Aq5kvJhTa0yyO6sd0UzbYfRw0mfMpA==
qz2DecyfAULg8_-ds0SHTA==:DtNR1KyxU3FHB37IO1WOE0f0Xt4QjOBqYYe7ji9rCZiD9_VQO1-v_BUMHFdwwUC27oyc9pXk5SsK8rMO7kwLSyFeUGc3xtLUJlQwsoQHLnY=
O07rpcvZ4Y5jYO5GKV2iDA==:KMo0vARodQTwRfxM4zk45wVluddGfHoDeysQVrdvT5AcP2HrQGRV0Z0t5ldViTctjWv3GKWscCe-1HxfO_i34A==
tVgyrnI0JQo2OuZcaRvS8g==:WcMARgmgDhOGkf5SfYOHjOaaMMOX6g9bOXcduEBxsmJfQGXGWyyW3u4rJmK0ed5LoKDUB0Zf907PSSEtVjcYNA==
182p86LFm6yonN6Debd-rg==:tj2dzxHtdedXHYonsE5cG7DIzL6VJDReMMHYB9CqATQiN-efH3n_MbXtSq77LZ6REQGEiDkJ7mKae-P4rkPwphppHDZDtDPajX4gqJkqMJn8vHGx5aG2ZEVf8Sb4Smaz6hBzOEAtcft2EGk9GtaN6Q==
wzS5tMQ-ONAitr5jxRxn1g==:q6E4XsqWf_03uJO1MyAWy0s0HCPLYnm_f1sp64rKo_lIYPAV1xEs61fhUKnb8jlP6Q3M9QEnEMDK-Cm5NwjcA3jc9MutlB-Yq9yQnaXRgGt7sEzxO3mh0K2_RHDF23Pkoo19FQ5Ir9_Xg_JwcBTbW9yhBBil4Ll8d-h2G7VjZmrITORGeKKbHgpFK0wONFG8qRTj3d6OUr6DmF5IqnW8AnZDZ9oXV8xoV3snJPkHepmO6FA50EUY_lVfXvcKZPJPHs4YyheOR5MKR3jMWqPa9rp5oT7h_TcpVrZdqqihagvq1DrH-Qi6QL9EW5reiyM7ELETKco39TaVGo52tvcR4PXrMAWfn69GWUPdkic1UjShgch5Qtud5SqnIvXe8GhExK7eIzqZ_F6Femp8t-lm2qesI3QczlCfdAZ_jCpAMbPsPK9umitlLJM-xz5Egq17QyRK84oq5kbwjIT1txcgz_DkuirY---kE2uJODKGR07EWSkzhxZ9OppNONWIfMVBy1eA0-SvffRwd6M53hYOPPqpdEZh9yP_3DeHFYLyHeMgr0aJUiJzfCf7tXpT5lgFzeGTkNCrC9s3MmjLsxpw4HyegPxMYNgRSlg0l8GNRylo0K5NAvviQQuAKAjn9siezBM1CXpAV2iG_qQPrsDwb3m_nCkSRwW1mJ-xN2JrJDoE2kMGKOj1XVeNBV2YDA06Ffw1QS95ZgH20w1Xvwa05-oVrQ47veauKIMuM9w__khmmt0PYIbjRFVHLVWEeTyIJYdQKzbtvmoXDkuG9tbIF52IRvhhPUm3DrDio5V9Sl5GpwRt8DbxwFV_89UO4HMhM0ZgxD9RwZHEwxZYvLVeZ4drDJFzVKpZvUEkPrQ0rHH3sN9DnRqF_VgQdidYAcPwmuEIucroCN4y0Wm9jO-hmi5A1z-4PkK89aU8iE9Qt4i2IBqMrw0NwVWy_xH3bXHQ2OK9J2KhbS07w-Na_ynDFMTKo0bIyFDzfbyN0ME1jpqeIOay7wtt_eNOySPtVd7nPKjoezyOwag4Kjc4RWz6cjR_AF-O74fKCBcRJ-DngFjTfVoQLgQaT5ookCh_hZ8wzZSTUvIgbjFU5XPDxvHMZVi3vWPZcn8fnNkT6kC0ti98lnE5ausSgGKJJhuJ6wxpsRidgWH9dO4D6Wg-ersSHwu4Ov_x4G5vrGEY0RuB8XbWSw8sPeluV3pU524SCGf36spAcI9tI4Fn1aot9EFVDrZf1UUN3EP5gEUB6anbqDE=
tVGJawepXzArQXfBblE4hQ==:oTqFlZXCivI9d65iKcib2p7ISEFDI4Gjo8sftjCWERQ8L15_bcm4XMbYQFPeXo_R
